<svg width="35" height="43" viewBox="0 0 35 43" fill="none" xmlns="http://www.w3.org/2000/svg">
<path fill-rule="evenodd" clip-rule="evenodd" d="M5.02239 10.458L4.60842 10.6462L1.44721 12.1139C1.25905 12.2268 1.33431 12.1891 1.18378 12.2644C0.995612 12.3773 0.769811 12.4149 0.732178 12.5655V8.12473C0.769811 7.93656 1.03325 7.89892 1.18378 7.78602C1.33431 7.71076 1.25905 7.7484 1.44721 7.6355L6.3772 5.37749C6.3772 5.37749 6.41483 5.33986 6.45246 5.33986C6.4901 5.33986 6.4901 5.30222 6.52773 5.30222L10.3663 3.49581C10.404 3.49581 10.404 3.45819 10.4416 3.45819C10.4792 3.45819 10.4792 3.42054 10.5169 3.42054L12.3985 2.47971C12.6243 2.36681 12.4738 2.44208 12.662 2.36681C14.2426 1.61414 15.8232 0.86148 17.4038 0.10881L18.6081 0.673304L28.7691 5.4904C28.9949 5.56566 29.0325 5.64092 29.3336 5.71619L32.6077 7.2968C32.6453 7.2968 32.6453 7.33443 32.683 7.33443C33.2098 7.59786 33.5862 7.82366 34.1883 7.86129V12.302C33.5862 12.2644 33.2098 12.0386 32.683 11.7752C32.6453 11.7752 32.6453 11.7375 32.6077 11.7375L29.3336 10.1569C29.0325 10.044 28.9949 10.0064 28.7691 9.93113L18.6081 5.11405L17.4038 4.54956C15.8232 5.2646 14.2426 6.05489 12.662 6.80756C12.4738 6.92046 12.6243 6.84519 12.3985 6.92046L10.5169 7.86129C10.4792 7.86129 10.4792 7.89893 10.4416 7.89893C10.404 7.89893 10.404 7.93656 10.3663 7.93656L6.52773 9.74297C6.4901 9.74297 6.4901 9.78061 6.45246 9.78061C6.41483 9.78061 6.41483 9.81823 6.3772 9.81823L5.02239 10.4204V10.458ZM30.0486 20.2803C29.8605 19.7911 30.1239 20.2051 29.6723 19.9793C29.6347 19.9793 29.5594 19.9416 29.5594 19.904C29.5218 19.904 29.5218 19.8664 29.4841 19.8664L29.0702 19.6782C28.882 19.5653 29.0702 19.6782 28.882 19.5653L26.5111 18.3987C26.21 18.2481 26.5111 18.361 26.0595 18.2105L17.893 14.3343C17.7801 14.259 17.8178 14.2966 17.6672 14.2214L17.1404 14.1461L16.3124 14.5224C16.1995 14.5601 16.2372 14.56 16.0866 14.6353C16.0114 14.6729 15.8985 14.7482 15.8985 14.7482L13.3018 15.9901C13.1136 16.0654 13.0383 16.103 12.8878 16.1783L11.533 16.7428C11.4953 16.7428 11.4953 16.7804 11.4577 16.7804L10.705 17.1568C10.5921 17.232 10.6674 17.1944 10.5169 17.2697C10.4792 17.2697 10.4792 17.3073 10.4416 17.3073C10.404 17.3073 10.404 17.3449 10.3663 17.3449L6.18903 19.2642C6.15139 19.2642 6.1514 19.3019 6.11376 19.3019C5.88796 19.4148 5.88796 19.3771 5.69979 19.49L4.49552 20.0169L4.53316 38.796L29.3336 38.8336C29.9357 38.8336 29.9734 38.9089 29.9734 38.3068V20.2803H30.0486ZM34.1883 17.3449L34.2259 42.9733H0.732178V17.5707C0.769811 17.3826 1.03325 17.3449 1.18378 17.232C1.33431 17.1568 1.25905 17.1944 1.44721 17.0815L6.3772 14.8235C6.3772 14.8235 6.41483 14.7858 6.45246 14.7858C6.4901 14.7858 6.4901 14.7482 6.52773 14.7482L10.3663 12.9418C10.404 12.9418 10.404 12.9042 10.4416 12.9042C10.4792 12.9042 10.4792 12.8665 10.5169 12.8665L12.3985 11.9257C12.6243 11.8128 12.4738 11.8881 12.662 11.8128C14.2426 11.0601 15.8232 10.3075 17.4038 9.5548L18.6081 10.1193L28.7691 14.9364C28.9949 15.0117 29.0325 15.0869 29.3336 15.1622L32.6077 16.7428C32.6453 16.7428 32.6453 16.7804 32.683 16.7804C33.2098 17.0439 33.5862 17.2697 34.1883 17.3073V17.3449Z" fill="white"/>
</svg>
