<svg width="45" height="45" viewBox="0 0 45 45" fill="none" xmlns="http://www.w3.org/2000/svg">
<path d="M22.1769 44.2288C34.3904 44.2288 44.2913 34.3278 44.2913 22.1144C44.2913 9.90094 34.3904 0 22.1769 0C9.9635 0 0.062561 9.90094 0.062561 22.1144C0.062561 34.3278 9.9635 44.2288 22.1769 44.2288Z" fill="#42D461"/>
<path fill-rule="evenodd" clip-rule="evenodd" d="M12.3919 31.9741C12.4631 31.3096 13.0563 29.4875 13.2783 28.6367C13.4241 28.0807 13.4173 28.0604 13.1478 27.618C10.5579 23.3771 11.2613 18.5126 14.1123 15.1056C20.0667 7.99352 32.9502 11.6479 32.8163 22.4551C32.7604 26.9773 29.5111 30.7452 25.6923 32.0876C22.238 33.3029 19.6057 32.6029 16.6988 31.1384C15.9632 30.7672 13.3631 31.8537 12.3936 31.9724L12.3919 31.9741ZM25.3889 23.5992C24.9347 23.9416 24.5923 24.567 24.2075 24.9857C23.1821 26.101 18.3531 21.8398 19.1785 20.7415C20.3684 19.1533 20.304 19.9194 19.2158 17.1735C18.887 16.343 18.9074 16.0769 17.8616 16.0769C16.3886 16.0752 14.9191 18.4414 16.1598 21.1211C16.8395 22.5907 18.4599 24.4568 19.4769 25.3315C20.843 26.5044 22.2041 27.4315 24.4262 28.0282C26.2195 28.5112 28.8755 27.8434 28.6484 25.0247C28.1145 24.728 26.0229 23.6094 25.3872 23.5992H25.3889ZM9.83582 25.6484C10.0816 25.8247 9.95278 25.6162 9.94261 26.0061C10.0918 26.0755 10.0409 25.8484 10.1172 26.3535C11.2766 28.8045 11.1698 28.0468 10.5308 30.4944C10.207 31.73 9.45106 33.8826 9.34937 34.9996C10.4342 34.8013 15.675 33.2928 16.053 33.3368C16.6073 33.4029 21.504 36.459 27.5043 33.664C31.3197 31.8876 34.1994 28.3011 34.83 24.1416C35.3097 20.972 34.6249 19.9177 34.7418 19.0312C34.7198 19.0024 34.6978 18.9651 34.6859 18.9397C34.3283 18.299 34.4673 18.0753 33.7944 16.6243C33.4401 15.8582 33.0469 15.2226 32.5858 14.5785C26.0042 5.40699 11.6139 8.6071 9.59854 19.7906C9.01547 23.0246 9.87142 24.5246 9.83752 25.6467L9.83582 25.6484Z" fill="#FCFFFC"/>
</svg>
